{
    "packages": [
	{
	    "name": "vega",
	    "maintainer": "C-DAC",
	    "websiteURL": "https://vegaprocessors.in/",
	    "email": "", 
	    "help": {
		"online": "https://cdac-vega.gitlab.io/"
	    },
	    "platforms": [
		{
		    "category": "C-DAC",
		    "name": "VEGA ARIES Boards",
		    "version": "1.0.0",
		    "url": "https://gitlab.com/riscv-vega/vega-bsp/-/archive/aa7ccc12f7a736132e2fee6cbe4ebce9582aa216/vega-bsp-aa7ccc12f7a736132e2fee6cbe4ebce9582aa216.tar.bz2",
		    "checksum": "SHA-256:65ea4245a2be218245b980346126ba389657a4834bc90c1121bcba04ac9cf37b",
		    "archiveFileName": "vega-bsp-main.tar.bz2",
		    "size": "68112",
		    "architecture": "riscv",
		    "boards": [
			{"name": "ARIES v2"},
			{"name": "ARIES Micro v1"},
			{"name": "ARIES IoT v1"},
			{"name": "ARIES v3"} 
		    ], 
		    "toolsDependencies": [
			{
			    "packager": "vega",
			    "version": "001",
			    "name": "riscv64-vega-elf-gcc"
			},
			{
			    "packager": "vega",
			    "version": "001",
			    "name": "vegaxmodem"
			}
		    ]
		},
		{
		    "category": "C-DAC",
		    "name": "VEGA ARIES Boards",
		    "version": "1.0.1",
		    "url": "https://gitlab.com/riscv-vega/vega-bsp/-/archive/d6411b215535fed7d5185bb0622547b180836b23/vega-bsp-d6411b215535fed7d5185bb0622547b180836b23.tar.bz2",
		    "checksum": "SHA-256:23ef09c8039fe71d1ebedcaf72a454007286acb667d27de9e1bcb09bb13f459b",
		    "archiveFileName": "vega-bsp-main.tar.bz2",
		    "size": "437631",
		    "architecture": "riscv",
		    "boards": [
			{"name": "ARIES v2"},
			{"name": "ARIES Micro v1"},
			{"name": "ARIES IoT v1"},
			{"name": "ARIES v3"} 
		    ], 
		    "toolsDependencies": [
			{
				"packager": "vega",
			    "version": "001",
			    "name": "riscv64-vega-elf-gcc"
			},
			{
			    "packager": "vega",
			    "version": "001",
			    "name": "vegaxmodem"
			},
			{
			    "packager": "vega",
			    "version": "001",
			    "name": "vegaflasher"
			}
		    ]
		},
		{
		    "category": "C-DAC",
		    "name": "VEGA ARIES Boards",
		    "version": "1.0.2",
		    "url": "https://gitlab.com/riscv-vega/vega-bsp/-/archive/a9d5ca938f46e6e5866de17635199f1b9deba99d/vega-bsp-a9d5ca938f46e6e5866de17635199f1b9deba99d.tar.bz2",
		    "checksum": "SHA-256:ce590d372360f88577e7aa26268d679925e04a03de18473191be2ef015ffe441",
		    "archiveFileName": "vega-bsp-a9d5ca938f46e6e5866de17635199f1b9deba99d.tar.bz2",
		    "size": "445477",
		    "architecture": "riscv",
		    "boards": [
			{"name": "ARIES v2"},
			{"name": "ARIES Micro v1"},
			{"name": "ARIES IoT v1"},
			{"name": "ARIES v3"} 
		    ], 
		    "toolsDependencies": [
			{
			    "packager": "vega",
			    "version": "001",
			    "name": "riscv64-vega-elf-gcc"
			},
			{
			    "packager": "vega",
			    "version": "001",
			    "name": "vegaxmodem"
			},
			{
			    "packager": "vega",
			    "version": "001",
			    "name": "vegaflasher"
			}
		    ]
		},
		{
		    "category": "C-DAC",
		    "name": "VEGA ARIES Boards",
		    "version": "1.0.3",
		    "url": "https://gitlab.com/riscv-vega/vega-bsp/-/archive/9e32309399b2fddd792bff4a639a95019ad7a425/vega-bsp-9e32309399b2fddd792bff4a639a95019ad7a425.tar.bz2",
		    "checksum": "SHA-256:9876c8489aa77ca7250c22f3f403ad4bb74e6f7f8696086d69413e21536aa5af",
		    "archiveFileName": "vega-bsp-9e32309399b2fddd792bff4a639a95019ad7a425.tar.bz2",
		    "size": "451846",
		    "architecture": "riscv",
		    "boards": [
			{"name": "ARIES v2"},
			{"name": "ARIES Micro v1"},
			{"name": "ARIES IoT v1"},
			{"name": "ARIES v3"} 
		    ], 
		    "toolsDependencies": [
			{
			    "packager": "vega",
			    "version": "001",
			    "name": "riscv64-vega-elf-gcc"
			},
			{
			    "packager": "vega",
			    "version": "002",
			    "name": "vegaxmodem"
			},
			{
			    "packager": "vega",
			    "version": "002",
			    "name": "vegaflasher"
			}
		    ]
		},
		{
		    "category": "C-DAC",
		    "name": "VEGA ARIES Boards",
		    "version": "1.0.4",
		    "url": "https://gitlab.com/riscv-vega/vega-bsp/-/archive/9e32309399b2fddd792bff4a639a95019ad7a425/vega-bsp-9e32309399b2fddd792bff4a639a95019ad7a425.tar.bz2",
		    "checksum": "SHA-256:9876c8489aa77ca7250c22f3f403ad4bb74e6f7f8696086d69413e21536aa5af",
		    "archiveFileName": "vega-bsp-9e32309399b2fddd792bff4a639a95019ad7a425.tar.bz2",
		    "size": "451846",
		    "architecture": "riscv",
		    "boards": [
			{"name": "ARIES v2"},
			{"name": "ARIES Micro v1"},
			{"name": "ARIES IoT v1"},
			{"name": "ARIES v3"} 
		    ], 
		    "toolsDependencies": [
			{
			    "packager": "vega",
			    "version": "001",
			    "name": "riscv64-vega-elf-gcc"
			},
			{
			    "packager": "vega",
			    "version": "002",
			    "name": "vegaxmodem"
			},
			{
			    "packager": "vega",
			    "version": "002",
			    "name": "vegaflasher"
			}
		    ]
		}
	    ],
	    "tools": [
		{
		    "version": "001",
		    "name": "riscv64-vega-elf-gcc",
		    "systems": [
			{
			    "url": "https://gitlab.com/riscv-vega/vega-tools/-/archive/main/vega-tools-main.tar.bz2",
			    "checksum": "SHA-256:e2a7a87e60f8c21870405315887a4c67a1f90bc5d4ae71ca53e1d056a9510c32",
			    "host": "x86_64-pc-linux-gnu",
			    "archiveFileName": "vega-tools-main.tar.bz2",
			    "size": "395389010"
			},
			{
			    "url": "https://gitlab.com/riscv-vega/vega-tools-windows/-/archive/main/vega-tools-windows-main.tar.bz2",
			    "checksum": "SHA-256:18c05e99265ed13cb07fe53fe1acefcc08bc9fe6c1223b72077306c306161b0d",
			    "host": "i686-mingw32",
			    "archiveFileName": "vega-tools-windows-main.tar.bz2",
			    "size": "73681978"
			},
			{
			    "url": "https://gitlab.com/riscv-vega/vega-tools-windows/-/archive/main/vega-tools-windows-main.tar.bz2",
			    "checksum": "SHA-256:18c05e99265ed13cb07fe53fe1acefcc08bc9fe6c1223b72077306c306161b0d",
			    "host": "x86_64-mingw32",
			    "archiveFileName": "vega-tools-windows-main.tar.bz2",
			    "size": "73681978"
			}
		    ]
		},
		{
			"version": "001",
		    "name": "vegaxmodem",
		    "systems": [
			{
			    "url": "https://gitlab.com/riscv-vega/vega-xmodem/-/archive/642f4bec3a4b4585b510dfe8b08a7ff105402bc9/vega-xmodem-642f4bec3a4b4585b510dfe8b08a7ff105402bc9.tar.bz2",
			    "checksum": "SHA-256:ce55e4ba99672b1ec3de31a3b86cf24c093684995e74a5626a259e1721b4d395",
			    "host": "x86_64-pc-linux-gnu",
			    "archiveFileName": "vega-xmodem-642f4bec3a4b4585b510dfe8b08a7ff105402bc9.tar.bz2",
			    "size": "7897"
			},
			{
			    "url": "https://gitlab.com/riscv-vega/vega-xmodem-windows/-/archive/e17ecc22dee72e2fe74738da3c1e6a8b7efd2ab8/vega-xmodem-windows-e17ecc22dee72e2fe74738da3c1e6a8b7efd2ab8.tar.bz2",
			    "checksum": "SHA-256:5f7dc67074ba90d1f922c6164487f96c3dd5422baec33ecde7ea0ecfdb519c2e",
			    "host": "i686-mingw32",
			    "archiveFileName": "vega-xmodem-windows-e17ecc22dee72e2fe74738da3c1e6a8b7efd2ab8.tar.bz2",
			    "size": "7060368"
			},
			{
			    "url": "https://gitlab.com/riscv-vega/vega-xmodem-windows/-/archive/e17ecc22dee72e2fe74738da3c1e6a8b7efd2ab8/vega-xmodem-windows-e17ecc22dee72e2fe74738da3c1e6a8b7efd2ab8.tar.bz2",
			    "checksum": "SHA-256:5f7dc67074ba90d1f922c6164487f96c3dd5422baec33ecde7ea0ecfdb519c2e",
			    "host": "x86_64-mingw32",
			    "archiveFileName": "vega-xmodem-windows-e17ecc22dee72e2fe74738da3c1e6a8b7efd2ab8.tar.bz2",
			    "size": "7060368"
			}
		    ]
		},
		{
			"version": "002",
		    "name": "vegaxmodem",
		    "systems": [
			{
			    "url": "https://gitlab.com/riscv-vega/vega-xmodem/-/archive/f8f702284a34d26a8972054ffaba5daafc3613fe/vega-xmodem-f8f702284a34d26a8972054ffaba5daafc3613fe.tar.bz2",
			    "checksum": "SHA-256:0d55b5b59d100ecbb0b55ad0a91481777c7c4ece5fb8e0fd14c364049c8cdf76",
			    "host": "x86_64-pc-linux-gnu",
			    "archiveFileName": "vega-xmodem-f8f702284a34d26a8972054ffaba5daafc3613fe.tar.bz2",
			    "size": "372252"
			},
			{
			    "url": "https://gitlab.com/riscv-vega/vega-xmodem-windows/-/archive/99c91d4f28103bb5aa6b0f00e8cc294ebeb186fe/vega-xmodem-windows-99c91d4f28103bb5aa6b0f00e8cc294ebeb186fe.tar.bz2",
			    "checksum": "SHA-256:8f06db90a476fde69a7f83b25d6255d2f9713a582165c1e3f96c1519194bccac",
			    "host": "i686-mingw32",
			    "archiveFileName": "vega-xmodem-windows-99c91d4f28103bb5aa6b0f00e8cc294ebeb186fe.tar.bz2",
			    "size": "12759990"
			},
			{
			    "url": "https://gitlab.com/riscv-vega/vega-xmodem-windows/-/archive/99c91d4f28103bb5aa6b0f00e8cc294ebeb186fe/vega-xmodem-windows-99c91d4f28103bb5aa6b0f00e8cc294ebeb186fe.tar.bz2",
			    "checksum": "SHA-256:8f06db90a476fde69a7f83b25d6255d2f9713a582165c1e3f96c1519194bccac",
			    "host": "x86_64-mingw32",
			    "archiveFileName": "vega-xmodem-windows-99c91d4f28103bb5aa6b0f00e8cc294ebeb186fe.tar.bz2",
			    "size": "12759990"
			}
		    ]
		},
		{
			"version": "001",
		    "name": "vegaflasher",
		    "systems": [
			{
			    "url": "https://gitlab.com/riscv-vega/vega-flasher/-/archive/f460bc312e409025b99f45bcd89f518d4a3a1a7d/vega-flasher-f460bc312e409025b99f45bcd89f518d4a3a1a7d.tar.bz2",
			    "checksum": "SHA-256:1f59f48554e6a1082bbb8f8f92045e9de9e2b839e8b30fb843eabf6e602aa3f1",
			    "host": "x86_64-pc-linux-gnu",
			    "archiveFileName": "vega-flasher-f460bc312e409025b99f45bcd89f518d4a3a1a7d.tar.bz2",
			    "size": "8037"
			},
			{
			    "url": "https://gitlab.com/riscv-vega/vega-flasher-windows/-/archive/e63bec13649de7b33c681932f777568b645da949/vega-flasher-windows-e63bec13649de7b33c681932f777568b645da949.tar.bz2",
			    "checksum": "SHA-256:1914a14bb7ffc1c15b8e321eacd49632767e05b84d12b27b9ff06ada778dcf02",
			    "host": "x86_64-mingw32",
			    "archiveFileName": "vega-flasher-windows-e63bec13649de7b33c681932f777568b645da949.tar.bz2",
			    "size": "7070918"
			},
			{
			    "url": "https://gitlab.com/riscv-vega/vega-flasher-windows/-/archive/e63bec13649de7b33c681932f777568b645da949/vega-flasher-windows-e63bec13649de7b33c681932f777568b645da949.tar.bz2",
			    "checksum": "SHA-256:1914a14bb7ffc1c15b8e321eacd49632767e05b84d12b27b9ff06ada778dcf02",
			    "host": "i686-mingw32",
			    "archiveFileName": "vega-flasher-windows-e63bec13649de7b33c681932f777568b645da949.tar.bz2",
			    "size": "7070918"
			}
		    ]
		},
		{
			"version": "002",
		    "name": "vegaflasher",
		    "systems": [
			{
			    "url": "https://gitlab.com/riscv-vega/vega-flasher/-/archive/4acef386619b515d27251be5c0cddb7dd4fb2b19/vega-flasher-4acef386619b515d27251be5c0cddb7dd4fb2b19.tar.bz2",
			    "checksum": "SHA-256:075e5f1283057e41c5967723b7819b9f617ca108aa5cf6f9e5c3981da37f440c",
			    "host": "x86_64-pc-linux-gnu",
			    "archiveFileName": "vega-flasher-4acef386619b515d27251be5c0cddb7dd4fb2b19.tar.bz2",
			    "size": "372455"
			},
			{
			    "url": "https://gitlab.com/riscv-vega/vega-flasher-windows/-/archive/05e62f90895a181748f647d18b0bb8aa62d3878b/vega-flasher-windows-05e62f90895a181748f647d18b0bb8aa62d3878b.tar.bz2",
			    "checksum": "SHA-256:b3dbdb4eaba64a9f5a3e3031a1227dcef13f57c643ec3d602b998a3e4140af2c",
			    "host": "x86_64-mingw32",
			    "archiveFileName": "vega-flasher-windows-05e62f90895a181748f647d18b0bb8aa62d3878b.tar.bz2",
			    "size": "12770073"
			},
			{
			    "url": "https://gitlab.com/riscv-vega/vega-flasher-windows/-/archive/05e62f90895a181748f647d18b0bb8aa62d3878b/vega-flasher-windows-05e62f90895a181748f647d18b0bb8aa62d3878b.tar.bz2",
			    "checksum": "SHA-256:b3dbdb4eaba64a9f5a3e3031a1227dcef13f57c643ec3d602b998a3e4140af2c",
			    "host": "i686-mingw32",
			    "archiveFileName": "vega-flasher-windows-05e62f90895a181748f647d18b0bb8aa62d3878b.tar.bz2",
			    "size": "12770073"
			}
		    ]
		}
	    ]
	}
    ]
}

